{
  "urn" : "local:rain80818:aries.mendia.future:aries_mendia_rcm_future.rcms_tavg_2034_12_4326",
  "version" : "0.0.1",
  "adapterType" : "wcs",
  "localPath" : "aries.mendia.future/resources/aries_mendia_rcm_future.rcms_tavg_2034_12_4326",
  "geometry" : "τ1{tend=2051222400000,tstart=2048544000000,ttype=logical}S2(74,39){bbox=[-3.4499999999999886 3.950000000000016 41.05 44.95],proj=EPSG:4326}",
  "projectName" : "aries.mendia.future",
  "localName" : "aries_mendia_rcm_future.rcms_tavg_2034_12_4326",
  "type" : "NUMBER",
  "resourceTimestamp" : 1671099809802,
  "metadata" : {
    "im:keywords" : "",
    "dc:comment" : "",
    "im:notes" : "",
    "dc:title" : "",
    "dc:url" : "",
    "dc:creator" : "",
    "im:thematic-area" : "",
    "dc:originator" : "",
    "im:geographic-area" : "",
    "dc:source" : ""
  },
  "parameters" : {
    "wcsIdentifier" : "aries_mendia_rcm_future__rcms_tavg_2034_12_4326",
    "transform" : "",
    "serviceUrl" : "http://192.168.250.122:8600/geoserver/aries_mendia_rcm_future/ows",
    "wcsVersion" : "2.0.1"
  },
  "localPaths" : [ ],
  "history" : [ ],
  "notifications" : [ ],
  "attributes" : [ ],
  "spatialExtent" : {
    "east" : 3.950000000000016,
    "west" : -3.4499999999999886,
    "north" : 44.95,
    "south" : 41.05,
    "gridResolution" : null,
    "gridUnit" : null
  },
  "dependencies" : null,
  "outputs" : null,
  "categorizables" : [ ],
  "codelists" : [ ],
  "availability" : null,
  "exportFormats" : { }
}