{
  "urn" : "local:rain80818:aries.mendia.future:aries_mendia_catchment.fd_pyrenees_epsg4326",
  "version" : "0.0.1",
  "adapterType" : "wcs",
  "localPath" : "aries.mendia.future/resources/aries_mendia_catchment.fd_pyrenees_epsg4326",
  "geometry" : "S2(6986,3143){bbox=[-3.340724257059701 4.129978867940299 40.9516862986616 44.31334232055941],proj=EPSG:4326}",
  "projectName" : "aries.mendia.future",
  "localName" : "aries_mendia_catchment.fd_pyrenees_epsg4326",
  "type" : "NUMBER",
  "resourceTimestamp" : 1669313580756,
  "metadata" : { },
  "parameters" : {
    "wcsIdentifier" : "aries_mendia_catchment__fd_pyrenees_epsg4326",
    "transform" : "",
    "serviceUrl" : "http://192.168.250.122:8600/geoserver/aries_mendia_catchment/ows",
    "nodata" : "0.0",
    "wcsVersion" : "2.0.1"
  },
  "localPaths" : [ ],
  "history" : [ ],
  "notifications" : [ ],
  "attributes" : [ ],
  "spatialExtent" : {
    "east" : 4.129978867940299,
    "west" : -3.340724257059701,
    "north" : 44.31334232055941,
    "south" : 40.9516862986616,
    "gridResolution" : null,
    "gridUnit" : null
  },
  "dependencies" : null,
  "outputs" : null,
  "categorizables" : [ ],
  "codelists" : [ ],
  "availability" : null,
  "exportFormats" : { }
}