{
  "urn" : "local:rain80818:aries.mendia.future:aries_mendia_catchment_mendia_ca_new_epsg43260",
  "version" : "0.0.1",
  "adapterType" : "wfs",
  "localPath" : "aries.mendia.future/resources/aries_mendia_catchment_mendia_ca_new_epsg43260",
  "geometry" : "#s2(12){bbox=[-1.83560795234999 2.7046927766906 42.1719653854927 43.1994944685219],proj=EPSG:4326}",
  "projectName" : "aries.mendia.future",
  "localName" : "aries_mendia_catchment_mendia_ca_new_epsg43260",
  "type" : "OBJECT",
  "resourceTimestamp" : 1672243358639,
  "metadata" : {
    "im:keywords" : "features,mendia_ca_new_epsg4326",
    "dc:title" : "mendia_ca_new_epsg4326"
  },
  "parameters" : {
    "serviceUrl" : "http://192.168.250.122:8600/geoserver/aries_mendia_catchment/ows",
    "wfsVersion" : "1.0.0",
    "wfsIdentifier" : "aries_mendia_catchment:mendia_ca_new_epsg43260"
  },
  "localPaths" : [ ],
  "history" : [ ],
  "notifications" : [ ],
  "attributes" : [ {
    "name" : "id",
    "type" : "NUMBER",
    "key" : false,
    "optional" : true,
    "exampleValue" : null,
    "index" : 0
  }, {
    "name" : "gridcode",
    "type" : "NUMBER",
    "key" : false,
    "optional" : true,
    "exampleValue" : null,
    "index" : 0
  }, {
    "name" : "outlet_id",
    "type" : "TEXT",
    "key" : false,
    "optional" : true,
    "exampleValue" : null,
    "index" : 0
  } ],
  "spatialExtent" : {
    "east" : 2.7046927766906,
    "west" : -1.83560795234999,
    "north" : 43.1994944685219,
    "south" : 42.1719653854927,
    "gridResolution" : null,
    "gridUnit" : null
  },
  "dependencies" : null,
  "outputs" : null,
  "categorizables" : [ ],
  "codelists" : [ ],
  "availability" : null,
  "exportFormats" : { }
}